{
    "info": {
        "_postman_id": "b7e731f4-b48a-4959-832b-3091b3384dd1",
        "name": "Ramq",
        "schema": "https://schema.getpostman.com/json/collection/v2.1.0/collection.json"
    },
    "variable": [
        {
            "key": "local",
            "value": "http://localhost/ramq/public/api/v1"
        },
        {
            "key": "token",
            "value": ""
        }
    ],
    "event": [
        {
            "listen": "prerequest",
            "script": {
                "type": "text/javascript",
                "exec": [
                    ""
                ]
            }
        }
    ],
    "item": [
        {
            "name": "productbooks",
            "item": [
                {
                    "name": "get all productbooks",
                    "protocolProfileBehavior": {
                        "disableBodyPruning": true
                    },
                    "request": {
                        "auth": {
                            "type": "bearer",
                            "bearer": [
                                {
                                    "key": "token",
                                    "value": "{{token}}",
                                    "type": "string"
                                }
                            ]
                        },
                        "method": "GET",
                        "header": [
                            {
                                "key": "Accept",
                                "value": "application/json",
                                "type": "text"
                            }
                        ],
                        "body": {
                            "mode": "formdata",
                            "formdata": [
                                {
                                    "key": "lang",
                                    "description": "For Return Language Message default Arabic",
                                    "type": "text",
                                    "value": "ar"
                                }
                            ]
                        },
                        "url": {
                            "raw": "{{local}}/productbooks",
                            "host": [
                                "{{local}}"
                            ],
                            "path": [
                                "productbooks"
                            ]
                        },
                        "description": "test description"
                    },
                    "response": []
                },
                {
                    "name": "show by id productbooks",
                    "protocolProfileBehavior": {
                        "disableBodyPruning": true
                    },
                    "request": {
                        "auth": {
                            "type": "bearer",
                            "bearer": [
                                {
                                    "key": "token",
                                    "value": "{{token}}",
                                    "type": "string"
                                }
                            ]
                        },
                        "method": "GET",
                        "header": [
                            {
                                "key": "Accept",
                                "value": "application/json",
                                "type": "text"
                            }
                        ],
                        "body": {
                            "mode": "formdata",
                            "formdata": [
                                {
                                    "key": "lang",
                                    "description": "For Return Language Message default Arabic",
                                    "type": "text",
                                    "value": "ar"
                                }
                            ]
                        },
                        "url": {
                            "raw": "{{local}}/productbooks/{PUT_YOUR_ID}",
                            "host": [
                                "{{local}}"
                            ],
                            "path": [
                                "productbooks",
                                "{PUT_YOUR_ID}"
                            ]
                        },
                        "description": "test description"
                    },
                    "response": []
                },
                {
                    "name": "Add Record productbooks",
                    "protocolProfileBehavior": {
                        "disableBodyPruning": true
                    },
                    "request": {
                        "auth": {
                            "type": "bearer",
                            "bearer": [
                                {
                                    "key": "token",
                                    "value": "{{token}}",
                                    "type": "string"
                                }
                            ]
                        },
                        "method": "POST",
                        "header": [
                            {
                                "key": "Accept",
                                "value": "application/json",
                                "type": "text"
                            }
                        ],
                        "body": {
                            "mode": "formdata",
                            "formdata": [
                                {
                                    "key": "lang",
                                    "description": "For Return Language Message default Arabic",
                                    "type": "text",
                                    "value": "ar"
                                },
                                {
                                    "key": "product_id",
                                    "value": "App\\Models\\Product::pluck('product_name'",
                                    "type": "text",
                                    "description": "Dropdown data (App\\Models\\Product::pluck('product_name')"
                                },
                                {
                                    "key": "product_detail",
                                    "value": "some string",
                                    "type": "text",
                                    "description": "normal input text"
                                }
                            ]
                        },
                        "url": {
                            "raw": "{{local}}/productbooks",
                            "host": [
                                "{{local}}"
                            ],
                            "path": [
                                "productbooks"
                            ]
                        },
                        "description": "test description"
                    },
                    "response": []
                },
                {
                    "name": "Update Record By ID productbooks",
                    "protocolProfileBehavior": {
                        "disableBodyPruning": true
                    },
                    "request": {
                        "auth": {
                            "type": "bearer",
                            "bearer": [
                                {
                                    "key": "token",
                                    "value": "{{token}}",
                                    "type": "string"
                                }
                            ]
                        },
                        "method": "PUT",
                        "header": [
                            {
                                "key": "Accept",
                                "value": "application/json",
                                "type": "text"
                            }
                        ],
                        "body": {
                            "mode": "formdata",
                            "formdata": [
                                {
                                    "key": "lang",
                                    "description": "For Return Language Message default Arabic",
                                    "type": "text",
                                    "value": "ar"
                                },
                                {
                                    "key": "product_id",
                                    "value": "App\\Models\\Product::pluck('product_name'",
                                    "type": "text",
                                    "description": "Dropdown data (App\\Models\\Product::pluck('product_name')"
                                },
                                {
                                    "key": "product_detail",
                                    "value": "some string",
                                    "type": "text",
                                    "description": "normal input text"
                                }
                            ]
                        },
                        "url": {
                            "raw": "{{local}}/productbooks/{PUT_YOUR_ID}",
                            "host": [
                                "{{local}}"
                            ],
                            "path": [
                                "productbooks",
                                "{PUT_YOUR_ID}"
                            ]
                        },
                        "description": "test description"
                    },
                    "response": []
                },
                {
                    "name": "DELETE Record By ID productbooks",
                    "protocolProfileBehavior": {
                        "disableBodyPruning": true
                    },
                    "request": {
                        "auth": {
                            "type": "bearer",
                            "bearer": [
                                {
                                    "key": "token",
                                    "value": "{{token}}",
                                    "type": "string"
                                }
                            ]
                        },
                        "method": "DELETE",
                        "header": [
                            {
                                "key": "Accept",
                                "value": "application/json",
                                "type": "text"
                            }
                        ],
                        "body": {
                            "mode": "formdata",
                            "formdata": [
                                {
                                    "key": "lang",
                                    "description": "For Return Language Message default Arabic",
                                    "type": "text",
                                    "value": "ar"
                                }
                            ]
                        },
                        "url": {
                            "raw": "{{local}}/productbooks/{PUT_YOUR_ID}",
                            "host": [
                                "{{local}}"
                            ],
                            "path": [
                                "productbooks",
                                "{PUT_YOUR_ID}"
                            ]
                        },
                        "description": "test description"
                    },
                    "response": []
                },
                {
                    "name": "Multi Delete Record By IDs productbooks",
                    "protocolProfileBehavior": {
                        "disableBodyPruning": true
                    },
                    "request": {
                        "auth": {
                            "type": "bearer",
                            "bearer": [
                                {
                                    "key": "token",
                                    "value": "{{token}}",
                                    "type": "string"
                                }
                            ]
                        },
                        "method": "POST",
                        "header": [
                            {
                                "key": "Accept",
                                "value": "application/json",
                                "type": "text"
                            }
                        ],
                        "body": {
                            "mode": "formdata",
                            "formdata": [
                                {
                                    "key": "lang",
                                    "description": "For Return Language Message default Arabic",
                                    "type": "text",
                                    "value": "ar"
                                },
                                {
                                    "key": "selected_data[]",
                                    "value": "1",
                                    "type": "text",
                                    "description": "Record ID Integer"
                                },
                                {
                                    "key": "selected_data[]",
                                    "value": "2",
                                    "type": "text",
                                    "description": "Record ID Integer"
                                }
                            ]
                        },
                        "url": {
                            "raw": "{{local}}/productbooks/multi_delete",
                            "host": [
                                "{{local}}"
                            ],
                            "path": [
                                "productbooks",
                                "multi_delete"
                            ]
                        },
                        "description": "test description"
                    },
                    "response": []
                }
            ]
        }
    ]
}